Part2/transcript
# vsim -c Testbench 
# //  QuestaSim-64 6.5f Jun 16 2010 Linux 4.15.0-36-generic
# //
# //  Copyright 1991-2010 Mentor Graphics Corporation
# //              All Rights Reserved.
# //
# //  THIS WORK CONTAINS TRADE SECRET AND 
# //  PROPRIETARY INFORMATION WHICH IS THE PROPERTY
# //  OF MENTOR GRAPHICS CORPORATION OR ITS LICENSORS
# //  AND IS SUBJECT TO LICENSE TERMS.
# //
# Loading work.Testbench
# Loading work.circuit2
# Loading work.shift_reg_a
# Loading work.shift_reg_p
# Loading work.co_DFF
# Loading work.n_bitadder
# Loading work.fulladder
#                    0  0  0 0 0000 0000 0 0 0000 0000   0
#                   10  2  2 0 0000 0000 0 0 0000 0010   2
#                   20  2  2 1 0010 0010 0 0 0000 0001   1
#                   25  2  2 1 0010 0100 0 0 0010 0001  33
#                   30  2  2 0 0000 0001 0 0 0001 0000  16
#                   40  2  2 0 0000 0000 0 0 0000 1000   8
#                   50  2  2 0 0000 0000 0 0 0000 0100   4
#                   60  2  2 0 0000 0000 0 0 0000 0010   2
#                   70  0  0 0 0000 0000 0 0 0000 0000   0
#                  190 15  3 1 0011 0011 0 0 0000 1111  15
#                  195 15  3 1 0011 0110 0 0 0011 1111  63
#                  200 15  3 1 0011 0100 0 0 0001 1111  31
#                  205 15  3 1 0011 0111 0 0 0100 1111  79
#                  210 15  3 1 0011 0101 0 0 0010 0111  39
#                  215 15  3 1 0011 1000 0 0 0101 0111  87
#                  220 15  3 1 0011 0101 0 0 0010 1011  43
#                  225 15  3 1 0011 1000 0 0 0101 1011  91
#                  230 15  3 1 0011 0101 0 0 0010 1101  45
#                  235 15  3 1 0011 1000 0 0 0101 1101  93
#                  240 15  3 0 0000 0010 0 0 0010 1110  46
#                  250 15  3 1 0011 0100 0 0 0001 0111  23
#                  255 15  3 1 0011 0111 0 0 0100 0111  71
#                  260 15  3 1 0011 0101 0 0 0010 0011  35
#                  265 15  3 1 0011 1000 0 0 0101 0011  83
#                  270 15  3 1 0011 0101 0 0 0010 1001  41
#                  275 15  3 1 0011 1000 0 0 0101 1001  89
#                  280 15  3 0 0000 0010 0 0 0010 1100  44
#                  290 15  3 0 0000 0001 0 0 0001 0110  22
#                  300 15  3 1 0011 0011 0 0 0000 1011  11
#                  305 15  3 1 0011 0110 0 0 0011 1011  59
#                  310 15  3 1 0011 0100 0 0 0001 1101  29
#                  315 15  3 1 0011 0111 0 0 0100 1101  77
#                  320 15  3 0 0000 0010 0 0 0010 0110  38
#                  330 15  3 1 0011 0100 0 0 0001 0011  19
#                  335 15  3 1 0011 0111 0 0 0100 0011  67
#                  340 15  3 1 0011 0101 0 0 0010 0001  33
#                  345 15  3 1 0011 1000 0 0 0101 0001  81
#                  350 15  3 0 0000 0010 0 0 0010 1000  40
#                  360 15  3 0 0000 0001 0 0 0001 0100  20
#                  370 15  3 0 0000 0000 0 0 0000 1010  10
#                  380 15  3 1 0011 0011 0 0 0000 0101   5
#                  385 15  3 1 0011 0110 0 0 0011 0101  53
#                  390 15  3 0 0000 0001 0 0 0001 1010  26
#                  400 15  3 1 0011 0011 0 0 0000 1101  13
#                  405 15  3 1 0011 0110 0 0 0011 1101  61
#                  410 15  3 0 0000 0001 0 0 0001 1110  30
#                  420 15  3 1 0011 0011 0 0 0000 1111  15
#                  425 15  3 1 0011 0110 0 0 0011 1111  63
#                  430 15  3 1 0011 0100 0 0 0001 1111  31
#                  435 15  3 1 0011 0111 0 0 0100 1111  79
#                  440 15  3 1 0011 0101 0 0 0010 0111  39
#                  445 15  3 1 0011 1000 0 0 0101 0111  87
#                  450 15  3 1 0011 0101 0 0 0010 1011  43
#                  455 15  3 1 0011 1000 0 0 0101 1011  91
#                  460 15  3 1 0011 0101 0 0 0010 1101  45
#                  465 15  3 1 0011 1000 0 0 0101 1101  93
#                  470 15  3 0 0000 0010 0 0 0010 1110  46
#                  480 15  3 1 0011 0100 0 0 0001 0111  23
#                  485 15  3 1 0011 0111 0 0 0100 0111  71
# ** Note: $finish    : part2tb.v(13)
#    Time: 490 fs  Iteration: 0  Instance: :Testbench
